{
    "key": "group_5848cdf726293",
    "title": "Post Options",
    "fields": [
        {
            "default_value": 1,
            "message": "",
            "ui": 1,
            "ui_on_text": "",
            "ui_off_text": "",
            "key": "field_5848cdfd2445d",
            "label": "Append Subscribe Form",
            "name": "append_subscribe_form",
            "type": "true_false",
            "instructions": "",
            "required": 0,
            "conditional_logic": 0,
            "wrapper": {
                "width": "",
                "class": "",
                "id": ""
            }
        }
    ],
    "location": [
        [
            {
                "param": "post_type",
                "operator": "==",
                "value": "post"
            }
        ]
    ],
    "menu_order": 0,
    "position": "normal",
    "style": "default",
    "label_placement": "top",
    "instruction_placement": "label",
    "hide_on_screen": "",
    "active": 1,
    "description": "",
    "modified": 1481166392
}